-------------------------------------------------------------------------------
Test set: sonartest.core.filters.LoggingFilterTest
-------------------------------------------------------------------------------
Tests run: 1, Failures: 0, Errors: 0, Skipped: 0, Time elapsed: 4.778 s - in sonartest.core.filters.LoggingFilterTest
